Project 1 Analysis on UMD Data
…
Similarly, I removed all the NA and group it by year and month, and then calculated the mean amount of provided diapers. It is shown that this service continued from 2000 to 2019 but there are only about 1000 services on that. The two graphic shows that although the times of support on diapers decreased in recent years, the amount of provided diapers significantly increased (especially in 2018 because more than 5000 diapers was provided at one time), which implies that UMD provided support more pinpointly.

School Kits

df_schoolkits <- df %>%
  filter(year>1996 & year<2019) %>%
  drop_na('School Kits') %>%
  filter(`School Kits` > 0) %>%  #we treat 0 as NA
  group_by(year, month) %>%
  summarise(count = n(),
            school_kits = sum(`School Kits`)
  )
 df_schoolkits

## # A tibble: 26 x 4
## # Groups:   year [15]
##     year month count school_kits
##    <dbl> <dbl> <int>       <dbl>
##  1  2001    10     1           2
##  2  2002     8     5          10
##  3  2004     8     1           2
##  4  2005     8     1           1
##  5  2005    12     1           6
##  6  2007     8     1           1
##  7  2008    10     1          12
##  8  2008    11     1           1
##  9  2008    12     1           1
## 10  2009     1     1           1
## #  with 16 more rows
…
